R Introsessie
…
---

## Inlezen van SPSS file

```r
df <- read_spss('Gemeente Y Werkbestand.sav') %>%
  as_factor() 

df %>%
  as_tibble()
```

```
## # A tibble: 248 x 5
##    V1                          V2                  V3_SQ001 V3_SQ002 V5_SQ001   
##    <fct>                       <fct>               <fct>    <fct>    <fct>      
##  1 Financiële vergoeding voor~ Ja, de eerste keer  Ja       Ja       Ja         
##  2 Hulp bij het huishouden     Nee, ik heb deze v~ Nee      Nee      Niet gesel~
##  3 Rolstoel                    Ja, de eerste keer  Nee      Nee      Niet gesel~
##  4 Financiële vergoeding voor~ Nee, ik heb deze v~ Nee      Nee      Niet gesel~
##  5 Anders                      Ja, de eerste keer  Ja       Ja       Niet gesel~
##  6 Scootmobiel                 Nee, ik heb deze v~ Ja       Ja       Niet gesel~
##  7 Anders                      Nee, ik heb deze v~ Nee      <NA>     Niet gesel~
##  8 Woonvoorziening/woningaanp~ Ja, de eerste keer  Nee      <NA>     Niet gesel~
##  9 Persoonlijke begeleiding e~ Nee, ik heb deze v~ Nee      Nee      Niet gesel~
## 10 Collectief vervoer (Omnibu~ Nee, ik heb deze v~ Ja       Nee      Niet gesel~
## # ... with 238 more rows
```
…
